<svg xmlns="http://www.w3.org/2000/svg" width="71.14" height="75.984" viewBox="0 0 71.14 75.984">
  <g id="Group_45" data-name="Group 45" transform="translate(-354.491 -51.33)">
    <path id="Path_48" data-name="Path 48" d="M26.147,193.3A26.176,26.176,0,0,0,0,219.447v9.213A9.048,9.048,0,0,0,9.037,237.7H43.256a9.048,9.048,0,0,0,9.038-9.038v-9.213A26.176,26.176,0,0,0,26.147,193.3Zm0,0" transform="translate(354.491 -110.385)" fill="#02b2b9"/>
    <path id="Path_49" data-name="Path 49" d="M159.6,193.3v44.4h17.109a9.048,9.048,0,0,0,9.038-9.038v-9.213A26.177,26.177,0,0,0,159.6,193.3Zm0,0" transform="translate(221.037 -110.385)" fill="#089196"/>
    <path id="Path_53" data-name="Path 53" d="M66.45.5A18.251,18.251,0,1,0,84.7,18.75,18.271,18.271,0,0,0,66.45.5Zm0,0" transform="translate(314.189 50.83)" fill="#e7f0ef"/>
    <path id="Path_54" data-name="Path 54" d="M159.6.5V37a18.251,18.251,0,0,0,0-36.5Zm0,0" transform="translate(221.037 50.83)" fill="#c5e1e6"/>
    <g id="Group_44" data-name="Group 44" transform="translate(-13.931 -1.191)">
      <path id="Path_50" data-name="Path 50" d="M308.049,241.5a18.846,18.846,0,1,0,18.846,18.846A18.867,18.867,0,0,0,308.049,241.5Zm0,0" transform="translate(112.668 -150.687)" fill="#ffcf00"/>
      <path id="Path_51" data-name="Path 51" d="M419.447,260.346A18.867,18.867,0,0,0,400.6,241.5v37.692A18.868,18.868,0,0,0,419.447,260.346Zm0,0" transform="translate(20.115 -150.687)" fill="#d6ae03"/>
      <path id="Path_52" data-name="Path 52" d="M366.878,311.2h-2.9v-2.9a2.538,2.538,0,1,0-5.075,0v2.9h-2.9a2.538,2.538,0,1,0,0,5.075h2.9v2.9a2.538,2.538,0,0,0,5.075,0v-2.9h2.9a2.538,2.538,0,1,0,0-5.075Zm0,0" transform="translate(59.274 -204.081)" fill="#fff"/>
      <path id="Path_55" data-name="Path 55" d="M406.038,311.2h-2.9v-2.9a2.538,2.538,0,0,0-2.538-2.538v15.947a2.538,2.538,0,0,0,2.538-2.538v-2.9h2.9a2.538,2.538,0,1,0,0-5.075Zm0,0" transform="translate(20.115 -204.081)" fill="#c5e1e6"/>
    </g>
  </g>
</svg>
