<svg xmlns="http://www.w3.org/2000/svg" width="45.661" height="36.148" viewBox="0 0 45.661 36.148">
  <path id="Union_2" data-name="Union 2" d="M6.659,36.148A6.666,6.666,0,0,1,0,29.489V12.366A6.666,6.666,0,0,1,6.659,5.708h5.707a.954.954,0,0,0,.9-.651l.6-1.805A4.748,4.748,0,0,1,18.382,0h8.9a4.749,4.749,0,0,1,4.513,3.253l.6,1.8a.95.95,0,0,0,.9.651H39a6.666,6.666,0,0,1,6.659,6.658V29.489A6.666,6.666,0,0,1,39,36.148ZM1.9,12.366V29.489a4.762,4.762,0,0,0,4.757,4.756H39a4.762,4.762,0,0,0,4.757-4.756V12.366A4.762,4.762,0,0,0,39,7.61H33.294a2.853,2.853,0,0,1-2.707-1.95l-.6-1.805A2.851,2.851,0,0,0,27.278,1.9h-8.9a2.848,2.848,0,0,0-2.705,1.95l-.6,1.807a2.853,2.853,0,0,1-2.708,1.95H6.659A4.763,4.763,0,0,0,1.9,12.366Zm9.513,8.562A11.415,11.415,0,1,1,22.83,32.343,11.426,11.426,0,0,1,11.416,20.928Zm1.9,0a9.513,9.513,0,1,0,9.513-9.513A9.524,9.524,0,0,0,13.317,20.928Zm1.9,0a7.617,7.617,0,0,1,7.61-7.61.951.951,0,0,1,0,1.9,5.714,5.714,0,0,0-5.708,5.708.951.951,0,1,1-1.9,0Z"/>
</svg>
