<?xml version="1.0" encoding="utf-8"?>
<svg version="1.1" id="Capa_1" xmlns="http://www.w3.org/2000/svg" xmlns:xlink="http://www.w3.org/1999/xlink" x="0px" y="0px"
	 viewBox="0 0 70.4 70.4" style="enable-background:new 0 0 70.4 70.4;" xml:space="preserve">
<g>
	<path class="st0" fill="#02B2B9" d="M35.5,0c-0.1,0-0.3,0-0.4,0v12.7c12.4,0,22.5,10.1,22.5,22.5S47.6,57.7,35.1,57.7v12.7c0.1,0,0.3,0,0.4,0
		c19.3-0.2,34.8-15.9,34.8-35.2S54.8,0.2,35.5,0z M49,33.1h4.2c-0.8-7-5.6-12.8-12.1-15.1C45.3,20.3,48.4,26.1,49,33.1z M53.2,37.3
		H49c-0.5,7-3.7,12.8-7.9,15.1C47.6,50.2,52.4,44.3,53.2,37.3z M37.9,21.5c-1.1-3.4-2.4-4.5-2.8-4.5v16.1h4.6
		C39.6,28.7,39,24.6,37.9,21.5z M37.9,48.9c1-3.1,1.7-7.2,1.8-11.6h-4.6v16.1C35.5,53.4,36.8,52.3,37.9,48.9z"/>
	<path class="st1" fill="#ACE5E3" d="M35.5,0c-0.1,0-0.3,0-0.4,0C15.7,0-0.1,15.8-0.1,35.2c0,7.2,2.1,13.8,5.8,19.4L0.1,67.4
		c-0.8,1.8,1,3.6,2.8,2.8l12.8-5.6c5.6,3.7,12.2,5.8,19.4,5.8c0.1,0,0.3,0,0.4,0c16.9-0.2,30.6-15.9,30.6-35.2S52.5,0.2,35.5,0z
		 M35.1,57.7c-12.4,0-22.5-10.1-22.5-22.5s10.1-22.5,22.5-22.5s22.5,10.1,22.5,22.5S47.6,57.7,35.1,57.7z M49,33.1h4.2
		c-0.8-7-5.6-12.8-12.1-15.1C45.3,20.3,48.4,26.1,49,33.1z M41.1,52.4c6.5-2.3,11.3-8,12.1-15.1H49C48.4,44.3,45.3,50.2,41.1,52.4z
		 M35.1,17c-0.4,0-1.7,1.1-2.8,4.5c-1,3.1-1.7,7.2-1.8,11.6h9.2c-0.2-4.4-0.8-8.4-1.8-11.6C36.8,18.1,35.5,17,35.1,17z M30.5,37.3
		c0.2,4.4,0.8,8.4,1.8,11.6c1.1,3.4,2.4,4.5,2.8,4.5c0.4,0,1.7-1.1,2.8-4.5c1-3.1,1.7-7.2,1.8-11.6H30.5z M17.1,33.1h9.2
		c0.2-4.9,0.9-9.4,2.1-12.9c0.3-0.8,0.6-1.5,0.8-2.2C22.7,20.3,17.9,26.1,17.1,33.1z M26.3,37.3h-9.2c0.8,7,5.6,12.8,12.1,15.1
		c-0.3-0.6-0.6-1.4-0.8-2.2C27.2,46.7,26.4,42.2,26.3,37.3z"/>
	<path class="st2" fill="#02B2B9" fill-opacity="0.61" d="M35.1,8.5c-14.7,0-26.7,12-26.7,26.7s12,26.7,26.7,26.7s26.7-12,26.7-26.7S49.9,8.5,35.1,8.5z M35.1,57.7
		c-12.4,0-22.5-10.1-22.5-22.5s10.1-22.5,22.5-22.5s22.5,10.1,22.5,22.5S47.6,57.7,35.1,57.7z M49,33.1h4.2
		c-0.8-7-5.6-12.8-12.1-15.1C45.3,20.3,48.4,26.1,49,33.1z M41.1,52.4c6.5-2.3,11.3-8,12.1-15.1H49C48.4,44.3,45.3,50.2,41.1,52.4z
		 M35.1,17c-0.4,0-1.7,1.1-2.8,4.5c-1,3.1-1.7,7.2-1.8,11.6h9.2c-0.2-4.4-0.8-8.4-1.8-11.6C36.8,18.1,35.5,17,35.1,17z M30.5,37.3
		c0.2,4.4,0.8,8.4,1.8,11.6c1.1,3.4,2.4,4.5,2.8,4.5c0.4,0,1.7-1.1,2.8-4.5c1-3.1,1.7-7.2,1.8-11.6H30.5z M17.1,33.1h9.2
		c0.2-4.9,0.9-9.4,2.1-12.9c0.3-0.8,0.6-1.5,0.8-2.2C22.7,20.3,17.9,26.1,17.1,33.1z M26.3,37.3h-9.2c0.8,7,5.6,12.8,12.1,15.1
		c-0.3-0.6-0.6-1.4-0.8-2.2C27.2,46.7,26.4,42.2,26.3,37.3z"/>
	<path class="st3" fill="#FFFFFF" d="M49,33.1h4.2c-0.8-7-5.6-12.8-12.1-15.1C45.3,20.3,48.4,26.1,49,33.1z M41.1,52.4c6.5-2.3,11.3-8,12.1-15.1H49
		C48.4,44.3,45.3,50.2,41.1,52.4z M35.1,17c-0.4,0-1.7,1.1-2.8,4.5c-1,3.1-1.7,7.2-1.8,11.6h9.2c-0.2-4.4-0.8-8.4-1.8-11.6
		C36.8,18.1,35.5,17,35.1,17z M30.5,37.3c0.2,4.4,0.8,8.4,1.8,11.6c1.1,3.4,2.4,4.5,2.8,4.5c0.4,0,1.7-1.1,2.8-4.5
		c1-3.1,1.7-7.2,1.8-11.6H30.5z M17.1,33.1h9.2c0.2-4.9,0.9-9.4,2.1-12.9c0.3-0.8,0.6-1.5,0.8-2.2C22.7,20.3,17.9,26.1,17.1,33.1z
		 M26.3,37.3h-9.2c0.8,7,5.6,12.8,12.1,15.1c-0.3-0.6-0.6-1.4-0.8-2.2C27.2,46.7,26.4,42.2,26.3,37.3z"/>
	<path class="st3" fill="#FFFFFF" d="M35.1,12.7c-12.4,0-22.5,10.1-22.5,22.5s10.1,22.5,22.5,22.5s22.5-10.1,22.5-22.5S47.6,12.7,35.1,12.7z
		 M53.2,33.1H44c-0.2-4.9-0.9-9.4-2.1-12.9c-0.3-0.8-0.6-1.5-0.8-2.2C47.6,20.3,52.4,26.1,53.2,33.1z M17.1,37.3h9.2
		c0.2,4.9,0.9,9.4,2.1,12.9c0.3,0.8,0.6,1.5,0.8,2.2C22.7,50.2,17.9,44.3,17.1,37.3z M28.3,20.2c-1.2,3.5-1.9,8.1-2.1,12.9h-9.2
		c0.8-7,5.6-12.8,12.1-15.1C28.9,18.6,28.6,19.4,28.3,20.2z M37.9,48.9c-1.1,3.4-2.4,4.5-2.8,4.5s-1.7-1.1-2.8-4.5
		c-1-3.1-1.7-7.2-1.8-11.6h9.2C39.6,41.7,39,45.8,37.9,48.9z M30.5,33.1c0.2-4.4,0.8-8.4,1.8-11.6c1.1-3.4,2.4-4.5,2.8-4.5
		c0.4,0,1.7,1.1,2.8,4.5c1,3.1,1.7,7.2,1.8,11.6H30.5z M41.1,52.4c0.3-0.6,0.6-1.4,0.8-2.2c1.2-3.5,1.9-8.1,2.1-12.9h9.2
		C52.4,44.3,47.6,50.2,41.1,52.4z"/>
	<path class="st4" fill="#059393" d="M53.2,33.1H49c-0.5-7-3.7-12.8-7.9-15.1C47.6,20.3,52.4,26.1,53.2,33.1z"/>
	<path class="st0" fill="#02B2B9" d="M49,33.1h-5c-0.2-4.9-0.9-9.4-2.1-12.9c-0.3-0.8-0.6-1.5-0.8-2.2C45.3,20.3,48.4,26.1,49,33.1z"/>
	<path class="st4" fill="#059393" d="M53.2,37.3c-0.8,7-5.6,12.8-12.1,15.1c4.2-2.3,7.3-8,7.9-15.1H53.2z"/>
	<path class="st0" fill="#02B2B9" d="M49,37.3c-0.5,7-3.7,12.8-7.9,15.1c0.3-0.6,0.6-1.4,0.8-2.2c1.2-3.5,1.9-8.1,2.1-12.9L49,37.3L49,37.3z"/>
	<path class="st0" fill="#02B2B9" d="M39.8,33.1h-9.2c0.2-4.4,0.8-8.4,1.8-11.6c1.1-3.4,2.4-4.5,2.8-4.5s1.7,1.1,2.8,4.5
		C39,24.6,39.6,28.7,39.8,33.1z"/>
	<path class="st0" fill="#02B2B9" d="M39.8,37.3c-0.2,4.4-0.8,8.4-1.8,11.6c-1.1,3.4-2.4,4.5-2.8,4.5c-0.4,0-1.7-1.1-2.8-4.5
		c-1-3.1-1.7-7.2-1.8-11.6H39.8z"/>
	<path class="st0" fill="#02B2B9" d="M29.2,18c-0.3,0.6-0.6,1.4-0.8,2.2c-1.2,3.5-1.9,8.1-2.1,12.9h-9.2C17.9,26.1,22.7,20.3,29.2,18z"/>
	<path class="st0" fill="#02B2B9" d="M29.2,52.4c-6.5-2.3-11.3-8-12.1-15.1h9.2c0.2,4.9,0.9,9.4,2.1,12.9C28.6,51,28.9,51.8,29.2,52.4z"/>
</g>
</svg>
