<?xml version="1.0" encoding="utf-8"?>
<!-- Generator: Adobe Illustrator 25.2.1, SVG Export Plug-In . SVG Version: 6.00 Build 0)  -->
<svg version="1.1" id="Capa_1" xmlns="http://www.w3.org/2000/svg" xmlns:xlink="http://www.w3.org/1999/xlink" x="0px" y="0px"
	 viewBox="0 0 11.8 47.3" style="enable-background:new 0 0 11.8 47.3;" xml:space="preserve">
<g>
	<g>
		<g>
			<circle cx="5.9" cy="23.6" r="5.9"/>
			<circle cx="5.9" cy="41.3" r="5.9"/>
			<circle cx="5.9" cy="5.9" r="5.9"/>
		</g>
	</g>
</g>
</svg>
