<svg xmlns="http://www.w3.org/2000/svg" width="49.432" height="42.653" viewBox="0 0 49.432 42.653">
  <g id="send" transform="translate(0 -35.111)">
    <g id="Group_32" data-name="Group 32" transform="translate(0 35.111)">
      <path id="Path_37" data-name="Path 37" d="M46.488,52.028,6.6,35.479A4.773,4.773,0,0,0,.15,41.067l3.919,15.37L.15,71.807A4.773,4.773,0,0,0,6.6,77.395L46.488,60.846a4.773,4.773,0,0,0,0-8.818Zm-1.11,6.142L5.495,74.72a1.877,1.877,0,0,1-2.538-2.2L6.689,57.885H21.081a1.448,1.448,0,0,0,0-2.9H6.689L2.957,40.352a1.877,1.877,0,0,1,2.538-2.2L45.378,54.7a1.877,1.877,0,0,1,0,3.467Z" transform="translate(0 -35.111)"/>
    </g>
  </g>
</svg>
